-------------------------------------------------------------------------------
Test set: TestYasndbDAO
-------------------------------------------------------------------------------
Tests run: 1, Failures: 0, Errors: 0, Skipped: 0, Time elapsed: 0.126 sec
