com\getjavajob\webapp\yasndaoimpl\RegistrationDaoImpl.class
com\getjavajob\webapp\yasndbDAO\YasndbDAOImpl.class
com\getjavajob\webapp\yasndaoimpl\YasnDao.class
com\getjavajob\webapp\yasndaoimpl\PictureDaoImpl.class
com\getjavajob\webapp\yasndaoimpl\ProfileDaoImpl.class
com\getjavajob\webapp\yasndaoimpl\RelationshipDaoImpl.class
com\getjavajob\webapp\yasndaoimpl\WallDaoImpl.class
com\getjavajob\webapp\yasndaoimpl\SecurityDaoImpl.class
com\getjavajob\webapp\yansdao\LocationDao.class
com\getjavajob\webapp\DtoMapper.class
com\getjavajob\webapp\yansdao\ProfileDao.class
com\getjavajob\webapp\yansdao\RelationshipDao.class
com\getjavajob\webapp\yansdao\PictureDao.class
com\getjavajob\webapp\yansdao\RegistrationDao.class
com\getjavajob\webapp\yansdao\SecurityDao.class
com\getjavajob\webapp\yasndaoimpl\LocationDaoImpl.class
com\getjavajob\webapp\yansdao\WallDao.class
com\getjavajob\webapp\NameConstructor.class
