com\getjavajob\webapp\spring\web\controller\SearchController.class
com\getjavajob\webapp\servlet\SearchServlet.class
com\getjavajob\webapp\spring\web\controller\HealthController.class
com\getjavajob\webapp\servlet\HealthServlet.class
com\getjavajob\webapp\servlet\LoginServlet.class
com\getjavajob\webapp\servlet\RegistrationServlet.class
com\getjavajob\webapp\spring\web\controller\LoginController.class
com\getjavajob\webapp\servlet\FriendsServlet.class
com\getjavajob\webapp\indirectservlet\ActionPerformer.class
com\getjavajob\webapp\spring\web\controller\ProfileController.class
com\getjavajob\webapp\servlet\ProfileSettingServlet.class
com\getjavajob\webapp\servlet\AutowireableServlet.class
com\getjavajob\webapp\spring\web\controller\RegistrationController.class
com\getjavajob\webapp\filter\AuthFilter.class
com\getjavajob\webapp\servlet\ProfileServlet.class
